Raumname vorgeben,E-Mail Adresse
🍨 Eiscafé, irgendeine@mailadresse.de
🫕 Fonduestube, irgendeine@mailadresse.de
🏡 Gartenterrasse, irgendeine@mailadresse.de
🚀 Projektschmiede, irgendeine@mailadresse.de
🏖️ Strandcafé, irgendeine@mailadresse.de
🧉 Teestube, irgendeine@mailadresse.de
🫂 Gruppenarbeit 1, irgendeine@mailadresse.de
🫂 Gruppenarbeit 2, irgendeine@mailadresse.de
🫂 Gruppenarbeit 3, irgendeine@mailadresse.de
🫂 Gruppenarbeit 4, irgendeine@mailadresse.de
🫂 Gruppenarbeit 5, irgendeine@mailadresse.de
🫂 Gruppenarbeit 6, irgendeine@mailadresse.de